{
    "data": [
        {
            "id": "https://www.bonn.sitzung-online.de/public/oparl/memberships?id=2000470",
            "type": "https://schema.oparl.org/1.1/Membership",
            "person": "https://www.bonn.sitzung-online.de/public/oparl/persons?id=13089",
            "organization": "https://www.bonn.sitzung-online.de/public/oparl/organizations?typ=gr&id=20",
            "role": "Mitglied",
            "votingRight": true,
            "startDate": "2004-12-09",
            "endDate": "2009-10-20",
            "created": "2025-05-30T20:39:49+02:00",
            "modified": "2025-05-30T20:39:49+02:00",
            "deleted": false
        },
        {
            "id": "https://www.bonn.sitzung-online.de/public/oparl/memberships?id=13087",
            "type": "https://schema.oparl.org/1.1/Membership",
            "person": "https://www.bonn.sitzung-online.de/public/oparl/persons?id=313",
            "organization": "https://www.bonn.sitzung-online.de/public/oparl/organizations?typ=gr&id=49",
            "role": "Mitglied",
            "votingRight": true,
            "startDate": "2014-09-04",
            "endDate": "2020-10-31",
            "created": "2025-05-30T20:39:49+02:00",
            "modified": "2025-05-30T20:39:49+02:00",
            "deleted": false
        },
        {
            "id": "https://www.bonn.sitzung-online.de/public/oparl/memberships?id=5598",
            "type": "https://schema.oparl.org/1.1/Membership",
            "person": "https://www.bonn.sitzung-online.de/public/oparl/persons?id=313",
            "organization": "https://www.bonn.sitzung-online.de/public/oparl/organizations?typ=gr&id=49",
            "role": "Mitglied",
            "votingRight": true,
            "startDate": "2005-02-15",
            "endDate": "2014-06-23",
            "created": "2025-05-30T20:39:49+02:00",
            "modified": "2025-05-30T20:39:49+02:00",
            "deleted": false
        },
        {
            "id": "https://www.bonn.sitzung-online.de/public/oparl/memberships?id=16194",
            "type": "https://schema.oparl.org/1.1/Membership",
            "person": "https://www.bonn.sitzung-online.de/public/oparl/persons?id=515",
            "organization": "https://www.bonn.sitzung-online.de/public/oparl/organizations?typ=gr&id=49",
            "role": "Mitglied",
            "votingRight": true,
            "startDate": "2014-09-04",
            "endDate": "2020-10-31",
            "created": "2025-05-30T20:39:49+02:00",
            "modified": "2025-05-30T20:39:49+02:00",
            "deleted": false
        },
        {
            "id": "https://www.bonn.sitzung-online.de/public/oparl/memberships?id=8124",
            "type": "https://schema.oparl.org/1.1/Membership",
            "person": "https://www.bonn.sitzung-online.de/public/oparl/persons?id=674",
            "organization": "https://www.bonn.sitzung-online.de/public/oparl/organizations?typ=gr&id=49",
            "role": "Mitglied",
            "votingRight": true,
            "startDate": "2009-12-16",
            "endDate": "2014-09-04",
            "created": "2025-05-30T20:39:49+02:00",
            "modified": "2025-05-30T20:39:49+02:00",
            "deleted": false
        },
        {
            "id": "https://www.bonn.sitzung-online.de/public/oparl/memberships?id=13084",
            "type": "https://schema.oparl.org/1.1/Membership",
            "person": "https://www.bonn.sitzung-online.de/public/oparl/persons?id=674",
            "organization": "https://www.bonn.sitzung-online.de/public/oparl/organizations?typ=gr&id=49",
            "role": "Mitglied",
            "votingRight": true,
            "startDate": "2014-09-04",
            "endDate": "2020-10-31",
            "created": "2025-05-30T20:39:49+02:00",
            "modified": "2025-05-30T20:39:49+02:00",
            "deleted": false
        },
        {
            "id": "https://www.bonn.sitzung-online.de/public/oparl/memberships?id=3316",
            "type": "https://schema.oparl.org/1.1/Membership",
            "person": "https://www.bonn.sitzung-online.de/public/oparl/persons?id=674",
            "organization": "https://www.bonn.sitzung-online.de/public/oparl/organizations?typ=gr&id=49",
            "role": "Mitglied",
            "votingRight": true,
            "startDate": "2005-02-15",
            "endDate": "2009-10-20",
            "created": "2025-05-30T20:39:49+02:00",
            "modified": "2025-05-30T20:39:49+02:00",
            "deleted": false
        },
        {
            "id": "https://www.bonn.sitzung-online.de/public/oparl/memberships?id=13085",
            "type": "https://schema.oparl.org/1.1/Membership",
            "person": "https://www.bonn.sitzung-online.de/public/oparl/persons?id=2399",
            "organization": "https://www.bonn.sitzung-online.de/public/oparl/organizations?typ=gr&id=49",
            "role": "Mitglied",
            "votingRight": true,
            "startDate": "2014-09-04",
            "endDate": "2020-10-31",
            "created": "2025-05-30T20:39:49+02:00",
            "modified": "2025-05-30T20:39:49+02:00",
            "deleted": false
        },
        {
            "id": "https://www.bonn.sitzung-online.de/public/oparl/memberships?id=14343",
            "type": "https://schema.oparl.org/1.1/Membership",
            "person": "https://www.bonn.sitzung-online.de/public/oparl/persons?id=2607",
            "organization": "https://www.bonn.sitzung-online.de/public/oparl/organizations?typ=gr&id=50",
            "role": "Mitglied",
            "votingRight": true,
            "startDate": "2016-12-08",
            "endDate": "2020-10-31",
            "created": "2025-05-30T20:39:49+02:00",
            "modified": "2025-05-30T20:39:49+02:00",
            "deleted": false
        },
        {
            "id": "https://www.bonn.sitzung-online.de/public/oparl/memberships?id=12565",
            "type": "https://schema.oparl.org/1.1/Membership",
            "person": "https://www.bonn.sitzung-online.de/public/oparl/persons?id=136",
            "organization": "https://www.bonn.sitzung-online.de/public/oparl/organizations?typ=gr&id=53",
            "role": "Mitglied",
            "votingRight": true,
            "startDate": "2014-09-30",
            "endDate": "2020-10-31",
            "created": "2025-05-30T20:39:49+02:00",
            "modified": "2025-05-30T20:39:49+02:00",
            "deleted": false
        },
        {
            "id": "https://www.bonn.sitzung-online.de/public/oparl/memberships?id=12568",
            "type": "https://schema.oparl.org/1.1/Membership",
            "person": "https://www.bonn.sitzung-online.de/public/oparl/persons?id=529",
            "organization": "https://www.bonn.sitzung-online.de/public/oparl/organizations?typ=gr&id=53",
            "role": "Mitglied",
            "votingRight": true,
            "startDate": "2014-09-30",
            "endDate": "2020-10-31",
            "created": "2025-05-30T20:39:49+02:00",
            "modified": "2025-05-30T20:39:49+02:00",
            "deleted": false
        },
        {
            "id": "https://www.bonn.sitzung-online.de/public/oparl/memberships?id=6326",
            "type": "https://schema.oparl.org/1.1/Membership",
            "person": "https://www.bonn.sitzung-online.de/public/oparl/persons?id=529",
            "organization": "https://www.bonn.sitzung-online.de/public/oparl/organizations?typ=gr&id=53",
            "role": "Mitglied",
            "votingRight": true,
            "startDate": "2007-08-29",
            "endDate": "2009-10-20",
            "created": "2025-05-30T20:39:49+02:00",
            "modified": "2025-05-30T20:39:49+02:00",
            "deleted": false
        },
        {
            "id": "https://www.bonn.sitzung-online.de/public/oparl/memberships?id=9011",
            "type": "https://schema.oparl.org/1.1/Membership",
            "person": "https://www.bonn.sitzung-online.de/public/oparl/persons?id=529",
            "organization": "https://www.bonn.sitzung-online.de/public/oparl/organizations?typ=gr&id=53",
            "role": "Mitglied",
            "votingRight": true,
            "startDate": "2010-08-25",
            "endDate": "2014-06-23",
            "created": "2025-05-30T20:39:49+02:00",
            "modified": "2025-05-30T20:39:49+02:00",
            "deleted": false
        },
        {
            "id": "https://www.bonn.sitzung-online.de/public/oparl/memberships?id=12584",
            "type": "https://schema.oparl.org/1.1/Membership",
            "person": "https://www.bonn.sitzung-online.de/public/oparl/persons?id=748",
            "organization": "https://www.bonn.sitzung-online.de/public/oparl/organizations?typ=gr&id=53",
            "role": "Mitglied",
            "votingRight": true,
            "startDate": "2014-09-30",
            "endDate": "2020-10-31",
            "created": "2025-05-30T20:39:49+02:00",
            "modified": "2025-05-30T20:39:49+02:00",
            "deleted": false
        },
        {
            "id": "https://www.bonn.sitzung-online.de/public/oparl/memberships?id=12571",
            "type": "https://schema.oparl.org/1.1/Membership",
            "person": "https://www.bonn.sitzung-online.de/public/oparl/persons?id=1203",
            "organization": "https://www.bonn.sitzung-online.de/public/oparl/organizations?typ=gr&id=53",
            "role": "Mitglied",
            "votingRight": true,
            "startDate": "2014-09-30",
            "endDate": "2020-10-31",
            "created": "2025-05-30T20:39:49+02:00",
            "modified": "2025-05-30T20:39:49+02:00",
            "deleted": false
        },
        {
            "id": "https://www.bonn.sitzung-online.de/public/oparl/memberships?id=5954",
            "type": "https://schema.oparl.org/1.1/Membership",
            "person": "https://www.bonn.sitzung-online.de/public/oparl/persons?id=1203",
            "organization": "https://www.bonn.sitzung-online.de/public/oparl/organizations?typ=gr&id=53",
            "role": "Mitglied",
            "votingRight": true,
            "startDate": "2005-08-24",
            "endDate": "2009-10-20",
            "created": "2025-05-30T20:39:49+02:00",
            "modified": "2025-05-30T20:39:49+02:00",
            "deleted": false
        },
        {
            "id": "https://www.bonn.sitzung-online.de/public/oparl/memberships?id=9013",
            "type": "https://schema.oparl.org/1.1/Membership",
            "person": "https://www.bonn.sitzung-online.de/public/oparl/persons?id=1203",
            "organization": "https://www.bonn.sitzung-online.de/public/oparl/organizations?typ=gr&id=53",
            "role": "Mitglied",
            "votingRight": true,
            "startDate": "2010-08-25",
            "endDate": "2014-06-23",
            "created": "2025-05-30T20:39:49+02:00",
            "modified": "2025-05-30T20:39:49+02:00",
            "deleted": false
        },
        {
            "id": "https://www.bonn.sitzung-online.de/public/oparl/memberships?id=12569",
            "type": "https://schema.oparl.org/1.1/Membership",
            "person": "https://www.bonn.sitzung-online.de/public/oparl/persons?id=1692",
            "organization": "https://www.bonn.sitzung-online.de/public/oparl/organizations?typ=gr&id=53",
            "role": "Mitglied",
            "votingRight": true,
            "startDate": "2014-09-30",
            "endDate": "2018-10-31",
            "created": "2025-05-30T20:39:49+02:00",
            "modified": "2025-05-30T20:39:49+02:00",
            "deleted": false
        },
        {
            "id": "https://www.bonn.sitzung-online.de/public/oparl/memberships?id=12566",
            "type": "https://schema.oparl.org/1.1/Membership",
            "person": "https://www.bonn.sitzung-online.de/public/oparl/persons?id=1732",
            "organization": "https://www.bonn.sitzung-online.de/public/oparl/organizations?typ=gr&id=53",
            "role": "Mitglied",
            "votingRight": true,
            "startDate": "2014-09-30",
            "endDate": "2020-10-31",
            "created": "2025-05-30T20:39:49+02:00",
            "modified": "2025-05-30T20:39:49+02:00",
            "deleted": false
        },
        {
            "id": "https://www.bonn.sitzung-online.de/public/oparl/memberships?id=12574",
            "type": "https://schema.oparl.org/1.1/Membership",
            "person": "https://www.bonn.sitzung-online.de/public/oparl/persons?id=1797",
            "organization": "https://www.bonn.sitzung-online.de/public/oparl/organizations?typ=gr&id=53",
            "role": "Mitglied",
            "votingRight": true,
            "startDate": "2014-09-30",
            "endDate": "2020-10-31",
            "created": "2025-05-30T20:39:49+02:00",
            "modified": "2025-05-30T20:39:49+02:00",
            "deleted": false
        }
    ],
    "pagination": {
        "totalElements": 4156,
        "elementsPerPage": 20,
        "currentPage": 1,
        "totalPages": 208
    },
    "links": {
        "self": "https://www.bonn.sitzung-online.de/public/oparl/memberships?body=1&page=1",
        "last": "https://www.bonn.sitzung-online.de/public/oparl/memberships?body=1&page=208",
        "next": "https://www.bonn.sitzung-online.de/public/oparl/memberships?body=1&page=2"
    }
}