{
    "data": [
        {
            "id": "https://www.bonn.sitzung-online.de/public/oparl/memberships?id=12376",
            "type": "https://schema.oparl.org/1.1/Membership",
            "person": "https://www.bonn.sitzung-online.de/public/oparl/persons?id=1997",
            "organization": "https://www.bonn.sitzung-online.de/public/oparl/organizations?typ=gr&id=73",
            "role": "Mitglied",
            "votingRight": true,
            "startDate": "2014-09-30",
            "endDate": "2016-05-03",
            "created": "2025-06-04T13:48:16+02:00",
            "modified": "2025-06-04T13:48:16+02:00",
            "deleted": false
        },
        {
            "id": "https://www.bonn.sitzung-online.de/public/oparl/memberships?id=12472",
            "type": "https://schema.oparl.org/1.1/Membership",
            "person": "https://www.bonn.sitzung-online.de/public/oparl/persons?id=1997",
            "organization": "https://www.bonn.sitzung-online.de/public/oparl/organizations?typ=gr&id=222",
            "role": "Mitglied",
            "votingRight": true,
            "startDate": "2014-09-30",
            "endDate": "2020-10-31",
            "created": "2025-06-04T13:48:16+02:00",
            "modified": "2025-06-04T13:48:16+02:00",
            "deleted": false
        },
        {
            "id": "https://www.bonn.sitzung-online.de/public/oparl/memberships?id=18532",
            "type": "https://schema.oparl.org/1.1/Membership",
            "person": "https://www.bonn.sitzung-online.de/public/oparl/persons?id=1997",
            "organization": "https://www.bonn.sitzung-online.de/public/oparl/organizations?typ=gr&id=2",
            "role": "Stadtverordnete/r in Bezirksvertretung",
            "votingRight": true,
            "startDate": "2020-11-01",
            "endDate": "2025-03-06",
            "created": "2025-06-04T13:48:16+02:00",
            "modified": "2025-03-14T15:12:12+01:00",
            "deleted": false
        },
        {
            "id": "https://www.bonn.sitzung-online.de/public/oparl/memberships?id=2003010",
            "type": "https://schema.oparl.org/1.1/Membership",
            "person": "https://www.bonn.sitzung-online.de/public/oparl/persons?id=1997",
            "organization": "https://www.bonn.sitzung-online.de/public/oparl/organizations?typ=gr&id=190",
            "role": "Mitglied (Stv.)",
            "votingRight": true,
            "startDate": "2024-12-20",
            "endDate": "2025-03-06",
            "created": "2024-12-20T16:01:43+01:00",
            "modified": "2025-03-14T15:12:12+01:00",
            "deleted": false
        },
        {
            "id": "https://www.bonn.sitzung-online.de/public/oparl/memberships?id=2000862",
            "type": "https://schema.oparl.org/1.1/Membership",
            "person": "https://www.bonn.sitzung-online.de/public/oparl/persons?id=1997",
            "organization": "https://www.bonn.sitzung-online.de/public/oparl/organizations?typ=gr&id=336",
            "role": "Mitglied (Stv.)",
            "votingRight": true,
            "startDate": "2021-12-10",
            "endDate": "2025-03-06",
            "created": "2025-06-04T13:48:16+02:00",
            "modified": "2025-03-14T15:12:12+01:00",
            "deleted": false
        },
        {
            "id": "https://www.bonn.sitzung-online.de/public/oparl/memberships?id=2000709",
            "type": "https://schema.oparl.org/1.1/Membership",
            "person": "https://www.bonn.sitzung-online.de/public/oparl/persons?id=1997",
            "organization": "https://www.bonn.sitzung-online.de/public/oparl/organizations?typ=gr&id=341",
            "role": "Mitglied (Stv.)",
            "votingRight": true,
            "startDate": "2021-09-21",
            "endDate": "2023-09-19",
            "created": "2025-06-04T13:48:16+02:00",
            "modified": "2025-06-04T13:48:16+02:00",
            "deleted": false
        },
        {
            "id": "https://www.bonn.sitzung-online.de/public/oparl/memberships?id=2000676",
            "type": "https://schema.oparl.org/1.1/Membership",
            "person": "https://www.bonn.sitzung-online.de/public/oparl/persons?id=1997",
            "organization": "https://www.bonn.sitzung-online.de/public/oparl/organizations?typ=gr&id=346",
            "role": "Mitglied (Stv.)",
            "votingRight": true,
            "startDate": "2021-09-17",
            "endDate": "2025-03-06",
            "created": "2025-06-04T13:48:16+02:00",
            "modified": "2025-03-14T15:12:12+01:00",
            "deleted": false
        },
        {
            "id": "https://www.bonn.sitzung-online.de/public/oparl/memberships?id=2002557",
            "type": "https://schema.oparl.org/1.1/Membership",
            "person": "https://www.bonn.sitzung-online.de/public/oparl/persons?id=1997",
            "organization": "https://www.bonn.sitzung-online.de/public/oparl/organizations?typ=gr&id=354",
            "role": "Mitglied (Stv.)",
            "votingRight": true,
            "startDate": "2024-02-21",
            "endDate": "2025-03-06",
            "created": "2025-06-04T13:48:16+02:00",
            "modified": "2025-03-14T15:12:12+01:00",
            "deleted": false
        },
        {
            "id": "https://www.bonn.sitzung-online.de/public/oparl/memberships?id=18943",
            "type": "https://schema.oparl.org/1.1/Membership",
            "person": "https://www.bonn.sitzung-online.de/public/oparl/persons?id=1997",
            "organization": "https://www.bonn.sitzung-online.de/public/oparl/organizations?typ=gr&id=305",
            "role": "Stadtverordnete/r in Bezirksfraktion",
            "votingRight": true,
            "startDate": "2020-11-03",
            "endDate": "2025-03-06",
            "created": "2025-06-04T13:48:16+02:00",
            "modified": "2025-03-14T15:12:12+01:00",
            "deleted": false
        },
        {
            "id": "https://www.bonn.sitzung-online.de/public/oparl/memberships?id=20086",
            "type": "https://schema.oparl.org/1.1/Membership",
            "person": "https://www.bonn.sitzung-online.de/public/oparl/persons?id=1997",
            "organization": "https://www.bonn.sitzung-online.de/public/oparl/organizations?typ=gr&id=338",
            "role": "Stellv. Mitglied",
            "votingRight": false,
            "startDate": "2021-01-22",
            "endDate": "2025-03-06",
            "created": "2025-06-04T13:48:16+02:00",
            "modified": "2025-03-14T15:12:12+01:00",
            "deleted": false
        },
        {
            "id": "https://www.bonn.sitzung-online.de/public/oparl/memberships?id=2002011",
            "type": "https://schema.oparl.org/1.1/Membership",
            "person": "https://www.bonn.sitzung-online.de/public/oparl/persons?id=1997",
            "organization": "https://www.bonn.sitzung-online.de/public/oparl/organizations?typ=gr&id=341",
            "role": "Stellv. Mitglied",
            "votingRight": false,
            "startDate": "2023-09-20",
            "endDate": "2025-03-06",
            "created": "2025-06-04T13:48:16+02:00",
            "modified": "2025-03-14T15:12:12+01:00",
            "deleted": false
        },
        {
            "id": "https://www.bonn.sitzung-online.de/public/oparl/memberships?id=19379",
            "type": "https://schema.oparl.org/1.1/Membership",
            "person": "https://www.bonn.sitzung-online.de/public/oparl/persons?id=1997",
            "organization": "https://www.bonn.sitzung-online.de/public/oparl/organizations?typ=gr&id=329",
            "role": "2. stellv. Vorsitz",
            "votingRight": true,
            "startDate": "2021-01-22",
            "endDate": "2025-03-06",
            "created": "2025-06-04T13:48:16+02:00",
            "modified": "2025-03-14T15:12:12+01:00",
            "deleted": false
        },
        {
            "id": "https://www.bonn.sitzung-online.de/public/oparl/memberships?id=2002519",
            "type": "https://schema.oparl.org/1.1/Membership",
            "person": "https://www.bonn.sitzung-online.de/public/oparl/persons?id=1997",
            "organization": "https://www.bonn.sitzung-online.de/public/oparl/organizations?typ=gr&id=12",
            "role": "Stellv. Mitglied",
            "votingRight": false,
            "startDate": "2024-02-01",
            "endDate": "2025-03-06",
            "created": "2025-06-04T13:48:16+02:00",
            "modified": "2025-03-14T15:12:12+01:00",
            "deleted": false
        },
        {
            "id": "https://www.bonn.sitzung-online.de/public/oparl/memberships?id=18876",
            "type": "https://schema.oparl.org/1.1/Membership",
            "person": "https://www.bonn.sitzung-online.de/public/oparl/persons?id=1997",
            "organization": "https://www.bonn.sitzung-online.de/public/oparl/organizations?typ=gr&id=35",
            "role": "Stellv. Mitglied",
            "votingRight": false,
            "startDate": "2020-11-06",
            "endDate": "2025-03-06",
            "created": "2025-06-04T13:48:16+02:00",
            "modified": "2025-03-14T15:12:12+01:00",
            "deleted": false
        },
        {
            "id": "https://www.bonn.sitzung-online.de/public/oparl/memberships?id=10887",
            "type": "https://schema.oparl.org/1.1/Membership",
            "person": "https://www.bonn.sitzung-online.de/public/oparl/persons?id=1997",
            "organization": "https://www.bonn.sitzung-online.de/public/oparl/organizations?typ=gr&id=1",
            "role": "Stadtverordnete/r",
            "votingRight": true,
            "startDate": "2014-05-25",
            "endDate": "2025-03-06",
            "created": "2025-06-04T13:48:16+02:00",
            "modified": "2025-03-14T15:12:12+01:00",
            "deleted": false
        },
        {
            "id": "https://www.bonn.sitzung-online.de/public/oparl/memberships?id=19249",
            "type": "https://schema.oparl.org/1.1/Membership",
            "person": "https://www.bonn.sitzung-online.de/public/oparl/persons?id=1997",
            "organization": "https://www.bonn.sitzung-online.de/public/oparl/organizations?typ=gr&id=12",
            "role": "Mitglied (Stv.)",
            "votingRight": true,
            "startDate": "2020-12-11",
            "endDate": "2024-01-31",
            "created": "2025-06-04T13:48:16+02:00",
            "modified": "2025-01-29T13:37:45+01:00",
            "deleted": false
        },
        {
            "id": "https://www.bonn.sitzung-online.de/public/oparl/memberships?id=2002314",
            "type": "https://schema.oparl.org/1.1/Membership",
            "person": "https://www.bonn.sitzung-online.de/public/oparl/persons?id=1997",
            "organization": "https://www.bonn.sitzung-online.de/public/oparl/organizations?typ=gr&id=47",
            "role": "Fraktionsmitglied",
            "votingRight": true,
            "startDate": "2023-08-02",
            "endDate": "2025-03-06",
            "created": "2025-06-04T13:48:16+02:00",
            "modified": "2025-03-14T15:12:12+01:00",
            "deleted": false
        },
        {
            "id": "https://www.bonn.sitzung-online.de/public/oparl/memberships?id=9450",
            "type": "https://schema.oparl.org/1.1/Membership",
            "person": "https://www.bonn.sitzung-online.de/public/oparl/persons?id=1997",
            "organization": "https://www.bonn.sitzung-online.de/public/oparl/organizations?typ=gr&id=228",
            "role": "Mitglied",
            "votingRight": true,
            "startDate": "2011-10-20",
            "endDate": "2014-06-23",
            "created": "2025-06-04T13:48:16+02:00",
            "modified": "2025-06-04T13:48:16+02:00",
            "deleted": false
        },
        {
            "id": "https://www.bonn.sitzung-online.de/public/oparl/memberships?id=12876",
            "type": "https://schema.oparl.org/1.1/Membership",
            "person": "https://www.bonn.sitzung-online.de/public/oparl/persons?id=1997",
            "organization": "https://www.bonn.sitzung-online.de/public/oparl/organizations?typ=gr&id=228",
            "role": "Beiratsmitglied",
            "votingRight": true,
            "startDate": "2014-12-11",
            "endDate": "2020-10-30",
            "created": "2025-06-04T13:48:16+02:00",
            "modified": "2025-06-04T13:48:16+02:00",
            "deleted": false
        },
        {
            "id": "https://www.bonn.sitzung-online.de/public/oparl/memberships?id=19762",
            "type": "https://schema.oparl.org/1.1/Membership",
            "person": "https://www.bonn.sitzung-online.de/public/oparl/persons?id=1997",
            "organization": "https://www.bonn.sitzung-online.de/public/oparl/organizations?typ=gr&id=335",
            "role": "1. stellv. Vorsitz",
            "votingRight": true,
            "startDate": "2021-01-22",
            "endDate": "2025-03-06",
            "created": "2025-06-04T13:48:16+02:00",
            "modified": "2025-03-14T15:12:12+01:00",
            "deleted": false
        }
    ],
    "pagination": {
        "totalElements": 37,
        "elementsPerPage": 20,
        "currentPage": 1,
        "totalPages": 2
    },
    "links": {
        "self": "https://www.bonn.sitzung-online.de/public/oparl/memberships?person=1997&page=1",
        "last": "https://www.bonn.sitzung-online.de/public/oparl/memberships?person=1997&page=2",
        "next": "https://www.bonn.sitzung-online.de/public/oparl/memberships?person=1997&page=2"
    }
}